Efficient Data Handling
…
# SPREAD & GATHER

```r
# BASE = never heard of one
# TIDYVERSE gather
raw_ts = 
    raw_t %>%
    select(period_id, product_id, X1.sales, X2.sales) %>% 
    gather(key = "type", value = "sales", X1.sales, X2.sales)
raw_ts
```

```
## # A tibble: 60,000 x 4
##    period_id product_id type     sales
##        <int>      <int> <chr>    <dbl>
##  1     29642     761667 X1.sales   516
##  2      7565     784224 X1.sales   650
##  3     28690     198207 X1.sales   686
##  4     25006     719372 X1.sales   730
##  5      6222     116037 X1.sales   740
##  6     13194     653312 X1.sales   759
##  7     11599     881101 X1.sales   816
##  8     12745     304632 X1.sales   914
##  9     15723     205137 X1.sales   958
## 10      6630     753470 X1.sales   979
## # ... with 59,990 more rows
```

---

```r
# TIDYVERSE spread
raw_ts %>% 
    spread("type", "sales")
```

```
## # A tibble: 30,000 x 4
##    period_id product_id X1.sales X2.sales
##  *     <int>      <int>    <dbl>    <dbl>
##  1         1     715270    50858    10705
##  2         2     729466    73064    25997
##  3         3     396682   121722   146225
##  4         4     524832   282089   107900
##  5         5     787970    72313   145650
##  6         6     724768    24864    62136
##  7         7     368665   171013    99997
##  8         8     584925    66074   168560
##  9         9     342263    98727   127408
## 10        10     859470   105711     6836
## # ... with 29,990 more rows
```
…
